[
  {
    "path": "/Home",
    "name": "Home",
    "view": "Home",
    "icon": "home",
    "title": "Home"
  },
  {
    "path": "/About",
    "name": "About",
    "view": "About",
    "icon": "done",
    "title": "About"
  },
  {
    "path": "/ExplainList",
    "name": "ExplainList",
    "view": "ExplainList",
    "icon": "reorder",
    "title": "ExplainList"
  }
]
